<?xml version="1.0" standalone="no"?>
<!DOCTYPE svg PUBLIC "-//W3C//DTD SVG 1.1//EN" "http://www.w3.org/Graphics/SVG/1.1/DTD/svg11.dtd" >
<svg xmlns="http://www.w3.org/2000/svg">
<metadata>Generated by IcoMoon</metadata>
<defs>
<font id="ingenia" horiz-adv-x="1024">
<font-face units-per-em="1024" ascent="960" descent="-64" />
<missing-glyph horiz-adv-x="1024" />
<glyph unicode="&#x20;" horiz-adv-x="512" d="" />
<glyph unicode="&#xe900;" glyph-name="brand-campaigns" d="M950.272 943.821l-89.293-66.867-94.925-221.286h-79.36l-32.154 69.734h23.45c0.031 0 0.068 0 0.105 0 34.056 0 61.704 27.434 62.051 61.407v67.617h32.358v92.16h-92.16v-92.16h32.358v-67.584c-0.116-19.14-15.659-34.611-34.815-34.611-0.036 0-0.072 0-0.109 0h-35.834l-0.717 1.536-42.291 92.16 46.694 23.245-154.112 66.048-42.291-147.354v17.408c-0.625 78.699-64.568 142.256-143.356 142.256-79.176 0-143.36-64.184-143.36-143.36 0-49.69 25.281-93.476 63.682-119.197l0.518-0.327 1.126-0.717v-28.262h-39.629l-2.15-11.162c-3.95-20.094-6.21-43.199-6.21-66.832 0-20.041 1.625-39.702 4.752-58.859l-0.282 2.094v-1.229l-0.512-0.717-108.749-193.843 120.422-27.546v-202.752h161.69v-145.51h382.976v224.051l1.024 0.819c107.475 77.297 176.642 202.002 176.642 342.862 0 0.423-0.001 0.845-0.002 1.268v-0.066 58.982c-0.009 23.719-2.244 46.91-6.509 69.382l0.365-2.31-2.048 11.366h-33.382l74.035 177.357zM707.789 881.664v37.376h37.478v-37.376zM656.589 655.667h-66.867l-31.642 69.734h66.56zM559.718 655.667h-78.438v34.509c0 0.031 0 0.067 0 0.103 0 19.326 15.609 35.007 34.908 35.123h11.889zM508.518 898.048l71.68-30.72-16.998-9.011 48.845-105.677h-66.355l-39.014 85.606-17.306-8.806zM446.362 777.523l47.309 23.552 22.221-48.947h-3.686c-32.276-2.25-57.647-28.833-57.958-61.409v-34.642h-69.837v27.443l1.126 0.717c30.885 21.156 52.903 53.319 60.465 90.722l0.156 0.926zM190.362 803.43c0.032 63.938 51.872 115.758 115.814 115.758 63.963 0 115.814-51.852 115.814-115.814 0-42.496-22.888-79.646-57.009-99.796l-0.539-0.295-6.758-3.891v-43.725h-37.99v104.038l1.741 0.614c17.992 6.512 30.618 23.45 30.618 43.336 0 25.393-20.585 45.978-45.978 45.978s-45.978-20.585-45.978-45.978c0-19.886 12.625-36.824 30.298-43.235l0.32-0.101 1.741-0.614v-104.038h-37.376v43.725l-6.861 3.891c-34.726 20.458-57.699 57.602-57.856 100.124v0.023zM306.074 784.691c-10.349 0-18.739 8.39-18.739 18.739s8.39 18.739 18.739 18.739c10.349 0 18.739-8.39 18.739-18.739v0c0-10.349-8.39-18.739-18.739-18.739v0zM886.886 628.429v-2.15c2.372-14.591 3.817-31.526 3.992-48.767l0.001-0.18v-59.085c-0.146-134.852-67.625-253.913-170.622-325.388l-1.308-0.859-6.042-4.096v-210.944h-328.499v145.101h-161.69v197.734l-106.189 24.269 1.741 2.97 94.208 167.936-0.819 4.71c-3.076 17.046-4.835 36.666-4.835 56.697 0 17.538 1.348 34.761 3.947 51.571l-0.238-1.875v2.15zM846.746 655.667h-51.2l83.251 193.946 40.346-20.48zM923.136 857.6l-25.293 12.8 25.293 18.944zM338.432 499.2c0.825-0.032 1.793-0.051 2.765-0.051 41.68 0 75.469 33.789 75.469 75.469 0 0.090 0 0.18 0 0.269v-0.014h-27.546c0.006-0.282 0.009-0.614 0.009-0.947 0-26.354-21.364-47.718-47.718-47.718-1.229 0-2.446 0.046-3.651 0.138l0.16-0.010c-1.076-0.087-2.33-0.136-3.596-0.136-26.298 0-47.616 21.318-47.616 47.616 0 0.372 0.004 0.743 0.013 1.113l-0.001-0.055h-26.522c0-0.044 0-0.097 0-0.149 0-41.737 33.834-75.571 75.571-75.571 0.936 0 1.869 0.017 2.797 0.051l-0.134-0.004z" />
<glyph unicode="&#xe901;" glyph-name="branding" d="M898.048 849.203h-64.819c-43.24-0.058-78.278-35.096-78.336-78.33v-577.132c0.007-2.48 0.651-4.808 1.778-6.83l-0.037 0.072 85.811-150.426h-441.856c-0.030 0-0.066 0-0.103 0-22.226 0-40.243 18.017-40.243 40.243 0 0.036 0 0.072 0 0.108v-0.006 73.318h32.87c13.007 0 23.552 10.545 23.552 23.552v0 55.296h3.174c0 0 0 0 0 0 7.409 0 13.414 6.006 13.414 13.414 0 0.036 0 0.072 0 0.108v-0.005c0.017 61.725 27.188 117.1 70.216 154.832l0.235 0.202c49.457 43.273 80.52 106.509 80.52 177.001 0 129.678-105.125 234.803-234.803 234.803s-234.803-105.125-234.803-234.803c0-69.837 30.489-132.553 78.882-175.563l0.239-0.209c43.618-38.307 71.154-94.017 71.679-156.17l0.001-0.092c0-7.465 6.052-13.517 13.517-13.517v0h3.174v-55.296c0 0 0 0 0 0 0-12.971 10.486-23.494 23.444-23.552h27.654v-73.318c0-37.156 30.121-67.277 67.277-67.277h465.203c4.94 0.012 9.261 2.651 11.639 6.595l0.034 0.061 97.28 170.598c1.090 1.951 1.734 4.279 1.741 6.756v577.231c0 43.264-35.072 78.336-78.336 78.336v0zM211.968 419.123c-6.874 5.934-13.124 12.022-18.993 18.463l-0.156 0.173c-31.832 36.332-51.25 84.236-51.25 136.676 0 114.805 93.067 207.872 207.872 207.872s207.872-93.067 207.872-207.872c0-62.376-27.474-118.336-70.981-156.438l-0.24-0.206c-45.655-40.004-75.459-97.127-79.329-161.246l-0.031-0.648h-43.827v226.304c26.171 6.315 45.312 29.529 45.312 57.214 0 32.462-26.316 58.778-58.778 58.778s-58.778-26.316-58.778-58.778c0-27.685 19.141-50.9 44.91-57.132l0.402-0.082v-226.202h-43.93c-4.426 65.183-34.553 122.568-80.22 162.689l-0.267 0.23zM381.235 539.341c0.001-0.091 0.001-0.199 0.001-0.307 0-17.588-14.258-31.846-31.846-31.846s-31.846 14.258-31.846 31.846c0 17.588 14.257 31.846 31.845 31.846v0c0.031 0 0.067 0 0.103 0 17.46 0 31.627-14.096 31.743-31.528v-0.011zM309.555 229.069h80.589v-51.917h-80.998zM879.514 246.682v424.653h70.349v-449.741c-19.851 13.994-44.074 23.091-70.285 25.059l-0.473 0.029zM852.582 245.862c-26.487-3.832-50.255-12.973-71.056-26.332l0.707 0.425v451.379h70.349zM833.229 822.272h64.819c28.277 0 51.2-22.923 51.2-51.2v0-72.602h-167.424v72.397c0 0.061 0 0.133 0 0.205 0 28.277 22.923 51.2 51.2 51.2 0.072 0 0.144 0 0.216 0h-0.011zM865.69 50.278l-79.974 140.186c23.040 17.101 90.419 57.139 160.051 0zM335.974 886.374h26.931v-50.278h-26.931v50.278zM191.884 840.559l23.323 13.466 25.139-43.542-23.323-13.466-25.139 43.542zM90.034 728.888l13.466 23.323 43.542-25.139-13.466-23.323-43.542 25.139zM47.616 608.154h50.278v-26.931h-50.278v26.931zM600.883 608.154h50.278v-26.931h-50.278v26.931zM553.909 726.213l43.742 25.139 13.466-23.43-43.742-25.139-13.466 23.43zM459.043 812.342l25.139 43.742 23.43-13.466-25.139-43.742-23.43 13.466z" />
<glyph unicode="&#xe902;" glyph-name="certificado" d="M1010.176 565.35c-6.671 19.907-24.316 34.352-45.571 36.235l-0.202 0.014-288.563 26.522-114.688 267.366c-8.303 19.185-27.070 32.365-48.914 32.365-7.483 0-14.604-1.546-21.062-4.337l0.345 0.133c-12.778-5.5-22.777-15.432-28.23-27.816l-0.135-0.344-114.176-267.366-289.075-26.522c-27.090-2.731-48.059-25.414-48.059-52.995 0-15.794 6.877-29.983 17.799-39.734l0.052-0.046 218.522-192-63.898-283.648c-0.872-3.605-1.373-7.744-1.373-12 0-29.352 23.794-53.146 53.146-53.146 10.114 0 19.568 2.825 27.616 7.73l-0.234-0.133 248.525 149.299 249.344-148.992c7.808-4.748 17.25-7.559 27.347-7.559 29.408 0 53.248 23.84 53.248 53.248 0 4.205-0.487 8.296-1.409 12.22l0.071-0.361-64.41 283.75 218.522 192.205c11.027 9.801 17.94 24.022 17.94 39.858 0 5.733-0.906 11.255-2.583 16.429l0.106-0.377z" />
<glyph unicode="&#xe903;" glyph-name="emailing" d="M970.547 568.115c-1.311 1.637-2.954 2.952-4.832 3.855l-0.083 0.036-188.723 138.24v170.086c-0.114 7.702-6.327 13.915-14.018 14.029h-512.011c0 0 0 0 0 0-7.691 0-13.926-6.235-13.926-13.926 0-0.036 0-0.072 0-0.108v0.006-177.971l-179.2-130.867c-3.965-2.547-6.554-6.935-6.554-11.928 0-0.054 0-0.109 0.001-0.163v0.008-541.491c-0.212-0.913-0.333-1.962-0.333-3.039 0-3.225 1.088-6.196 2.917-8.565l-0.024 0.033c2.517-3.107 6.332-5.077 10.607-5.077 0.738 0 1.462 0.059 2.168 0.172l-0.078-0.010h892.723c7.55 0.11 13.629 6.256 13.629 13.823 0 0.181-0.003 0.36-0.010 0.539l0.001-0.026v541.286c0.221 0.918 0.347 1.972 0.347 3.055 0 3.008-0.975 5.788-2.627 8.042l0.027-0.038zM78.848 531.866l333.414-244.224-333.414-244.326zM512 325.939l404.48-296.243h-808.96zM611.738 287.539l333.517 244.224v-488.55zM935.629 559.411l-158.72-116.326v232.55zM749.056 866.611v-443.904l-160.973-118.067-67.891 49.869c-2.267 1.718-5.134 2.752-8.243 2.752s-5.977-1.034-8.277-2.777l0.034 0.025-67.686-49.869-171.622 126.054v435.712zM236.442 451.072l-147.866 108.339 147.866 108.237zM506.778 441.549c0.066 0 0.143 0 0.221 0 34.65 0 66.842 10.519 93.559 28.539l-0.596-0.379c3.879 2.515 6.409 6.824 6.409 11.723 0 2.796-0.824 5.4-2.243 7.582l0.033-0.054c-2.55 3.803-6.831 6.272-11.689 6.272-2.851 0-5.503-0.85-7.717-2.311l0.053 0.033c-21.902-14.651-48.844-23.381-77.824-23.381-77.988 0-141.21 63.222-141.21 141.21s63.222 141.21 141.21 141.21c77.988 0 141.21-63.222 141.21-141.21 0-0.024 0-0.048 0-0.072v0.004-13.926c-2.488-14.68-15.11-25.72-30.31-25.72s-27.822 11.040-30.285 25.539l-0.025 0.181v71.68c0.005 0.137 0.008 0.299 0.008 0.461 0 7.696-6.238 13.934-13.934 13.934-7.534 0-13.671-5.979-13.926-13.45l-0.001-0.023c-12.223 9.992-28.003 16.046-45.198 16.046-39.588 0-71.68-32.092-71.68-71.68s32.092-71.68 71.68-71.68c21.34 0 40.502 9.325 53.633 24.123l0.065 0.074c10.426-16.649 28.669-27.557 49.459-27.557 32.091 0 58.111 25.989 58.163 58.067v13.931c0 0.030 0 0.066 0 0.102 0 93.484-75.784 169.267-169.267 169.267s-169.267-75.784-169.267-169.267c0-93.484 75.784-169.267 169.267-169.267 0.072 0 0.144 0 0.216 0h-0.011zM557.978 614.093c0-0.030 0-0.066 0-0.102 0-24.431-19.805-44.237-44.237-44.237s-44.237 19.805-44.237 44.237c0 24.431 19.805 44.237 44.237 44.237 0.036 0 0.072 0 0.108 0h-0.006c24.351-0.058 44.076-19.783 44.134-44.129v-0.006z" />
<glyph unicode="&#xe904;" glyph-name="graphic-design" d="M523.264 352.973v0c-2.569 4.554-7.374 7.578-12.886 7.578-0.042 0-0.083 0-0.125-0.001h0.006c-0.041 0-0.089 0.001-0.137 0.001-5.478 0-10.248-3.029-12.728-7.504l-0.038-0.075-131.482-236.954c-1.212-2.121-1.926-4.661-1.926-7.367 0-5.597 3.054-10.48 7.587-13.074l0.074-0.039c39.979-25.142 66.379-68.682 67.275-118.449l0.002-0.131c0.058-8.234 6.717-14.893 14.945-14.95h112.645c8.19 0.115 14.791 6.752 14.848 14.945v0.005c0.714 50.094 27.159 93.858 66.686 118.744l0.591 0.347c4.644 2.571 7.736 7.441 7.736 13.034 0 2.742-0.743 5.311-2.040 7.516l0.038-0.070zM618.189 110.899c-35.188-27.5-59.25-67.825-65.139-113.832l-0.089-0.856-0.512-4.506h-84.173l-0.614 4.506c-6.028 46.935-30.25 87.286-65.246 114.396l-0.393 0.292-3.379 2.662 96.563 174.080v-102.4c-0.033-0.37-0.051-0.801-0.051-1.236 0-8.257 6.694-14.95 14.95-14.95s14.95 6.694 14.95 14.95c0 0.435-0.019 0.866-0.055 1.292l0.004-0.055v102.4l96.563-174.080zM916.173 899.789h-83.968c0 0 0 0 0 0-8.221 0-14.892-6.635-14.95-14.842v-83.974c0 0 0 0 0 0 0-8.277 6.681-14.994 14.945-15.052h22.534l-1.126-6.042c-26.953-142.681-137.565-253.465-277.977-280.33l-2.19-0.349-6.042-1.126v22.733c0 8.257-6.694 14.95-14.95 14.95v0h-84.275c-8.257 0-14.95-6.694-14.95-14.95v0-22.426l-6.042 0.819c-142.719 27.033-253.492 137.771-280.23 278.29l-0.346 2.184-1.024 6.042h22.426c8.257 0 14.95 6.694 14.95 14.95v84.275c0 0 0 0 0 0 0 8.2-6.648 14.848-14.848 14.848-0.036 0-0.072 0-0.108 0h-83.962c-8.2 0-14.848-6.648-14.848-14.848v0-83.968c0-0.031 0-0.067 0-0.103 0-8.221 6.635-14.892 14.843-14.95h31.34l0.717-4.301c20.647-122.702 97.847-223.855 203.348-277.125l2.169-0.993 19.558-10.24h-162.509l-1.536 2.15c-5.125 7.391-13.501 12.215-23.013 12.39h-0.027c-0.036 0-0.080 0-0.123 0-16.005 0-28.979-12.974-28.979-28.979s12.974-28.979 28.979-28.979c9.618 0 18.142 4.686 23.413 11.899l0.057 0.082 1.536 2.15h254.259v-27.034c0-8.257 6.694-14.95 14.95-14.95v0h83.866c8.257 0 14.95 6.694 14.95 14.95v0 27.034h254.566l1.536-2.15c5.25-7.231 13.676-11.879 23.187-11.879 0.056 0 0.113 0 0.169 0h-0.009c0.515-0.033 1.116-0.051 1.722-0.051 16.005 0 28.979 12.974 28.979 28.979s-12.974 28.979-28.979 28.979c-0.606 0-1.207-0.019-1.804-0.055l0.082 0.004c-0.048 0-0.104 0-0.16 0-9.511 0-17.937-4.648-23.13-11.796l-0.057-0.082-1.536-2.15h-162.509l19.558 10.24c107.575 54.186 184.744 155.171 205.202 275.472l0.314 2.236 0.717 4.301h31.334c8.213 0.058 14.848 6.729 14.848 14.95 0 0 0 0 0 0v0 83.968c0 8.2-6.648 14.848-14.848 14.848v0zM118.989 815.923v54.067h54.067v-54.067zM537.19 451.789h-54.067v54.17h54.067zM901.12 815.923h-53.965v54.067h53.965z" />
<glyph unicode="&#xe905;" glyph-name="social-media" d="M843.059 908.8h-39.526c-7.465 0-13.517-6.052-13.517-13.517s6.052-13.517 13.517-13.517v0h39.526c0.030 0 0.067 0 0.103 0 40.873 0 74.021-33.076 74.137-73.922v-312.331c-0.116-40.8-33.218-73.831-74.035-73.831-0.072 0-0.144 0-0.216 0h-44.328c-3.092-0.024-5.937-1.059-8.227-2.79l0.035 0.025-82.944-63.078v52.122c0 7.465-6.052 13.517-13.517 13.517v0h-163.84c-0.089 0-0.195-0.001-0.3-0.001-13.826 0-26.763 3.806-37.821 10.427l0.335-0.186v151.552c0 0.036 0 0.079 0 0.122 0 28.254-14.303 53.166-36.063 67.893l-0.289 0.184v156.16c0.117 40.857 33.264 73.933 74.137 73.933 0 0 0 0 0 0h188.723c7.465 0 13.517 6.052 13.517 13.517s-6.052 13.517-13.517 13.517h-189.133c0 0 0 0 0 0-55.803 0-101.054-45.179-101.171-100.955v-144.6c-5.692 1.546-12.242 2.475-18.995 2.559l-0.051 0.001h-247.194c-0.001 0-0.002 0-0.003 0-45.387 0-82.228-36.59-82.633-81.882v-29.222c0.624-6.942 6.414-12.341 13.466-12.341s12.842 5.399 13.462 12.289l0.004 0.052v28.774c0.116 30.621 24.966 55.398 55.603 55.398 0.036 0 0.072 0 0.108 0h247.188c0.031 0 0.067 0 0.103 0 30.637 0 55.486-24.778 55.603-55.387v-156.888c-0.101-0.539-0.158-1.159-0.158-1.792s0.057-1.253 0.168-1.855l-0.010 0.063v-85.811c0.050-0.765 0.079-1.659 0.079-2.56s-0.029-1.795-0.085-2.681l0.006 0.121h-28.365c-30.485-0.086-55.845-21.925-61.377-50.808l-0.063-0.392c-1.33-0.553-2.476-1.205-3.528-1.978l0.046 0.033-60.314-46.592v35.84c0 7.465-6.052 13.517-13.517 13.517v0h-135.782c0 0 0 0 0 0-30.693 0-55.589 24.824-55.705 55.49v136.101c-0.624 6.942-6.414 12.341-13.466 12.341s-12.842-5.399-13.462-12.289l-0.004-0.052v-136.090c0.406-45.33 37.247-81.92 82.634-81.92 0.001 0 0.002 0 0.003 0h122.163v-49.971c0.448-7.215 6.409-12.896 13.697-12.896 3.053 0 5.872 0.997 8.152 2.683l-0.037-0.026 67.994 52.531v-152.678c0.058-34.51 28.048-62.464 62.566-62.464 0 0 0 0 0 0h82.842v-31.437c0.384-7.213 6.327-12.916 13.601-12.916 3.053 0 5.872 1.005 8.144 2.702l-0.036-0.026 54.682 42.086h16.077c0 0 0 0 0 0 34.518 0 62.508 27.954 62.566 62.458v23.558c-0.624 6.942-6.414 12.341-13.466 12.341s-12.842-5.399-13.462-12.289l-0.004-0.052v-23.962c0.001-0.091 0.001-0.199 0.001-0.307 0-19.624-15.909-35.533-35.533-35.533-0.036 0-0.073 0-0.109 0h-20.474c-3.142-0.015-6.029-1.092-8.324-2.89l0.030 0.022-36.659-27.853v17.613c-0.228 7.287-6.19 13.107-13.511 13.107-0.002 0-0.004 0-0.007 0h-96.358c0 0-0.001 0-0.001 0-19.624 0-35.533 15.909-35.533 35.533 0 0.108 0 0.216 0.001 0.324v-0.017 174.797c0.231 19.447 16.050 35.123 35.53 35.123 0.001 0 0.002 0 0.002 0h175.309c0.031 0 0.067 0 0.103 0 19.552 0 35.416-15.792 35.532-35.317v-66.059c0.624-6.942 6.414-12.341 13.466-12.341s12.842 5.399 13.462 12.289l0.004 0.052v66.253c-0.116 34.466-28.084 62.362-62.566 62.362 0 0 0 0 0 0h-120.73c0 1.638 0 69.837 0 69.837 11.105-4.6 24.002-7.271 37.522-7.271 0.093 0 0.185 0 0.278 0h151.231v-66.15c0.484-7.183 6.429-12.825 13.692-12.825 3.010 0 5.794 0.969 8.056 2.613l-0.040-0.027 100.454 76.8h40.346c0 0 0 0 0 0 55.767 0 100.996 45.121 101.171 100.847v311.927c0 55.875-45.296 101.171-101.171 101.171v0zM720.384 808.755c1.741 0 3.379-0.819 0 0v0h-0.717c-10.854 2.765-2.867 0.717 0.717 0-1.849 0.433-3.973 0.681-6.154 0.681-15.288 0-27.73-12.182-28.149-27.368l-0.001-0.039c-0.19-20.259-7.931-38.674-20.54-52.599l0.060 0.068-37.171-42.086c-2.424 3.717-6.561 6.141-11.263 6.144h-72.5c-7.465 0-13.517-6.052-13.517-13.517v0-163.84c0.058-7.421 6.087-13.414 13.516-13.414 0 0 0 0 0 0h72.602c0 0 0 0 0 0 5.423 0 10.099 3.193 12.253 7.802l0.035 0.083c13.93-8.679 30.842-13.824 48.955-13.824 0.033 0 0.067 0 0.1 0h128.2c19.343 0.219 34.94 15.951 34.94 35.326 0 0.433-0.008 0.864-0.023 1.293l0.002-0.062c0 8.602 0 124.928 0 127.488 0 0 0 0 0 0 0 19.249-15.575 34.86-34.81 34.918h-66.771l2.765 6.451c5.339 12.185 8.445 26.386 8.445 41.312 0 19.361-5.227 37.501-14.346 53.086l0.269-0.498c-3.702 6.459-9.779 11.2-17.013 13.066l-0.19 0.042zM604.16 529.92h-45.978v136.704h45.978zM718.438 713.216l-10.24-25.19c-0.65-1.534-1.028-3.318-1.028-5.19 0-2.796 0.843-5.395 2.287-7.557l-0.031 0.050c2.412-3.66 6.503-6.042 11.151-6.042 0.004 0 0.007 0 0.011 0h87.039c0 0 0 0 0.001 0 4.375 0 7.929-3.518 7.986-7.879v-0.005c0-2.56 0-9.523 0-19.046 0-52.122 0-101.478 0-109.773 0.016-0.182 0.025-0.394 0.025-0.607 0-2.044-0.832-3.894-2.175-5.229v0c-1.449-1.509-3.481-2.449-5.733-2.458h-129.128c-16.044 0.015-30.768 5.652-42.312 15.047l0.123-0.097-5.632 4.608v105.267l55.296 62.566c16.529 18.633 26.624 43.3 26.624 70.324 0 0.009 0 0.017 0 0.026v-0.001c0.109 0.266 0.366 0.451 0.666 0.451s0.557-0.184 0.664-0.446l0.002-0.005c6.337-11.023 10.075-24.237 10.075-38.325 0-10.896-2.236-21.271-6.275-30.688l0.194 0.507zM195.277 439.808c-0.352 0.033-0.762 0.051-1.175 0.051-7.465 0-13.517-6.052-13.517-13.517s6.052-13.517 13.517-13.517c0.414 0 0.823 0.019 1.228 0.055l-0.052-0.004h40.243l-7.475-44.954c-0.117-0.668-0.184-1.438-0.184-2.223 0-6.698 4.873-12.259 11.267-13.33l0.079-0.011h2.15c0.021 0 0.046 0 0.071 0 6.649 0 12.169 4.838 13.23 11.186l0.011 0.078 8.192 49.357h32.563l-7.475-44.954c-0.117-0.668-0.184-1.438-0.184-2.223 0-6.698 4.873-12.259 11.267-13.33l0.079-0.011h2.15c0.047-0.001 0.103-0.001 0.158-0.001 6.629 0 12.127 4.846 13.144 11.189l0.010 0.076 8.192 49.357h54.17c6.942 0.624 12.341 6.414 12.341 13.466s-5.399 12.842-12.289 13.462l-0.052 0.004h-50.176l5.53 32.973h44.237c6.942 0.624 12.341 6.414 12.341 13.466s-5.399 12.842-12.289 13.462l-0.052 0.004h-39.834l7.475 44.954c0.214 0.9 0.336 1.933 0.336 2.995 0 7.465-6.052 13.517-13.517 13.517-6.969 0-12.707-5.274-13.438-12.049l-0.005-0.060-8.192-50.074h-32.87l7.475 44.954c0.214 0.9 0.336 1.933 0.336 2.995 0 7.465-6.052 13.517-13.517 13.517-6.969 0-12.707-5.274-13.438-12.049l-0.005-0.060-7.885-49.357h-54.17c-0.352 0.033-0.762 0.051-1.175 0.051-7.465 0-13.517-6.052-13.517-13.517s6.052-13.517 13.517-13.517c0.414 0 0.823 0.019 1.228 0.055l-0.052-0.004h49.664l-5.427-32.973zM272.384 472.781h32.461l-5.427-32.973h-32.563zM484.557 244.224c-21.759-5.808-37.524-25.34-37.524-48.555 0-0.75 0.016-1.497 0.049-2.239l-0.004 0.106c0.155-18.643 7.974-35.43 20.456-47.389l0.024-0.023c14.638-13.997 31.524-25.811 50.030-34.814l1.17-0.514c1.813-1.033 3.984-1.641 6.298-1.641s4.484 0.609 6.361 1.675l-0.064-0.033c42.701 22.63 71.68 45.363 71.68 82.739 0.014 0.436 0.021 0.949 0.021 1.463 0 24.037-16.936 44.118-39.526 48.961l-0.329 0.059c-3.165 0.794-6.799 1.25-10.538 1.25-10.791 0-20.697-3.794-28.455-10.121l0.082 0.064c-7.751 6.447-17.809 10.359-28.78 10.359-3.889 0-7.663-0.492-11.264-1.416l0.313 0.068zM524.902 200.397c5.266 0.155 9.773 3.254 11.945 7.701l0.036 0.081c2.836 5.994 8.835 10.066 15.784 10.066 1.672 0 3.289-0.236 4.819-0.676l-0.123 0.030c10.208-2.423 17.685-11.462 17.685-22.247 0-0.64-0.026-1.273-0.078-1.899l0.005 0.082c0-20.48-13.414-35.021-50.586-55.501-37.171 20.48-50.483 35.43-50.483 55.501-0.071 0.679-0.112 1.468-0.112 2.265 0 10.541 7.079 19.429 16.743 22.169l0.162 0.039c1.399 0.39 3.006 0.614 4.666 0.614 0.016 0 0.031 0 0.047 0h-0.002c0.025 0 0.054 0 0.084 0 7.492 0 13.945-4.445 16.867-10.841l0.047-0.116c2.329-4.361 6.85-7.278 12.053-7.278 0.155 0 0.309 0.003 0.463 0.008l-0.022-0.001z" />
<glyph unicode="&#xe906;" glyph-name="web-design" d="M402.842 544.358h-245.76c-16.174 0-29.286-13.112-29.286-29.286v0-430.080c0 0 0 0 0 0 0-16.118 13.066-29.184 29.184-29.184 0.036 0 0.072 0 0.108 0h245.754c0 0 0 0 0 0 16.138 0 29.228 13.054 29.286 29.178v430.086c-0.058 16.151-13.135 29.228-29.281 29.286h-0.006zM404.582 85.197c0-0.961-0.779-1.741-1.741-1.741v0h-245.76c-0.94 0.052-1.688 0.801-1.741 1.736v430.085c-0.002 0.032-0.003 0.069-0.003 0.106 0 0.905 0.734 1.638 1.638 1.638 0.037 0 0.074-0.001 0.111-0.004h245.755c0.961 0 1.741-0.779 1.741-1.741v0zM957.85 164.864v623.718c0.027 0.291 0.043 0.63 0.043 0.973s-0.016 0.681-0.046 1.016l0.003-0.043c0.023 0.276 0.037 0.597 0.037 0.922s-0.013 0.646-0.040 0.963l0.003-0.042v49.562c-0.116 33.186-27.017 60.051-60.206 60.109h-501.766c-33.174-0.058-60.051-26.935-60.109-60.103v-235.526h-225.28c-24.67-0.058-44.646-20.071-44.646-44.749 0 0 0 0 0 0v0-523.264c0 0 0 0 0 0 0-24.678 19.976-44.69 44.641-44.749h338.848c24.623 0.173 44.531 20.117 44.646 44.738v13.425h403.968c33.062 0.232 59.789 27.030 59.904 60.098v49.368s0 1.024 0 1.536 0 1.536 0 2.048zM493.978 457.523v103.936c-0.044 3.215-0.378 6.323-0.975 9.337l0.054-0.326c-4.291 20.583-22.277 35.827-43.826 35.84h-85.608v170.394h566.989v-599.654h-436.634zM396.288 874.598h501.76c18.041 0 32.666-14.625 32.666-32.666v0-37.683h-567.091v37.683c0 18.041 14.625 32.666 32.666 32.666v0zM466.432 38.4v0c0 0 0 0 0 0 0-9.522-7.69-17.247-17.198-17.305h-338.745c-9.513 0.058-17.203 7.784-17.203 17.305 0 0 0 0 0 0v0 522.24c0 9.501 7.702 17.203 17.203 17.203v0h338.739c9.501 0 17.203-7.702 17.203-17.203v0zM897.946 79.36h-403.866v70.144h436.531v-37.478c-0.058-18.017-14.648-32.608-32.66-32.666h-0.006zM577.331 826.88h139.469c0.356-0.033 0.77-0.051 1.189-0.051 7.635 0 13.824 6.189 13.824 13.824s-6.189 13.824-13.824 13.824c-0.418 0-0.833-0.019-1.242-0.055l0.053 0.004h-139.469c-7.106-0.632-12.635-6.556-12.635-13.773s5.529-13.141 12.582-13.769l0.053-0.004zM716.8 126.874h-139.469c-7.106-0.632-12.635-6.556-12.635-13.773s5.529-13.141 12.582-13.769l0.053-0.004h139.469c0.356-0.033 0.77-0.051 1.189-0.051 7.635 0 13.824 6.189 13.824 13.824s-6.189 13.824-13.824 13.824c-0.418 0-0.833-0.019-1.242-0.055l0.053 0.004z" />
<glyph unicode="&#xe907;" glyph-name="buscar" d="M727.072 311.574h-40.928l-14.445 14.445c121.981 142.044 105.129 355.511-36.113 477.492s-355.511 105.129-477.492-36.915-105.129-355.511 36.915-476.69c126.796-109.141 313.781-109.141 440.577 0l14.445-14.445v-40.928l260.013-259.21 77.041 77.041-260.013 259.21zM415.699 311.574c-129.204 0-233.53 104.326-233.53 233.53s104.326 233.53 233.53 233.53 233.53-104.326 233.53-233.53v0c0-128.401-104.326-232.727-233.53-233.53 0 0 0 0 0 0z" />
<glyph unicode="&#xe908;" glyph-name="blog" d="M701.44 154.112v0c3.959 3.541 6.439 8.666 6.439 14.369 0 5.152-2.024 9.832-5.32 13.287l0.007-0.008c-3.496 3.463-8.308 5.603-13.619 5.603s-10.124-2.14-13.621-5.604l0.001 0.001c-3.733-3.503-6.058-8.468-6.058-13.976 0-5.102 1.995-9.737 5.247-13.169l-0.008 0.009c3.518-3.506 8.372-5.674 13.732-5.674 5.1 0 9.742 1.962 13.212 5.173l-0.013-0.012zM876.339 551.322c-2.6 7.783-9.821 13.293-18.33 13.293-10.65 0-19.284-8.634-19.284-19.284 0-2.142 0.349-4.202 0.994-6.126l-0.040 0.136c0-0.512 0-0.922 0-1.331 15.749-41.445 24.868-89.367 24.868-139.419 0-222.709-180.542-403.251-403.251-403.251-85.431 0-164.657 26.566-229.867 71.888l1.326-0.872c-3.273 2.655-7.49 4.263-12.082 4.263-10.632 0-19.251-8.619-19.251-19.251 0-7.004 3.74-13.135 9.333-16.503l0.087-0.048c70.168-49.068 157.281-78.406 251.246-78.406 243.974 0 441.754 197.78 441.754 441.754 0 54.991-10.048 107.635-28.408 156.197l1.008-3.039zM230.912 728.166c64.485 45.664 144.762 72.994 231.423 72.994 48.577 0 95.149-8.587 138.28-24.327l-2.803 0.895c1.503-0.422 3.229-0.664 5.012-0.664 10.632 0 19.251 8.619 19.251 19.251 0 7.774-4.608 14.471-11.241 17.511l-0.12 0.049c-44.206 16.294-95.259 25.719-148.514 25.719-243.917 0-441.651-197.734-441.651-441.651 0-95.003 29.997-183 81.035-255.036l-0.924 1.375c3.557-4.279 8.881-6.984 14.836-6.984 10.632 0 19.251 8.619 19.251 19.251 0 3.594-0.985 6.958-2.699 9.837l0.049-0.088c-45.713 64.508-73.074 144.828-73.074 231.537 0 136.088 67.395 256.435 170.63 329.485l1.26 0.846zM1002.086 780.288c-2.962 7.012-9.77 11.849-17.711 11.878h-100.97l10.854 10.854c3.472 3.472 5.62 8.269 5.62 13.568 0 10.597-8.591 19.188-19.188 19.188-5.299 0-10.096-2.148-13.568-5.62v0l-11.059-10.957v101.171c-0.027 10.555-8.59 19.102-19.149 19.102-5.276 0-10.054-2.134-13.517-5.586l-169.266-169.266c-3.476-3.389-5.633-8.118-5.633-13.35 0-0.059 0-0.117 0.001-0.176v0.009-66.662c-52.163 34.595-116.219 55.196-185.087 55.196-0.486 0-0.972-0.001-1.458-0.003h0.075c-0.046 0-0.1 0-0.155 0-188.777 0-341.811-153.034-341.811-341.811s153.034-341.811 341.811-341.811c65.457 0 126.617 18.399 178.589 50.308l-1.487-0.849c4.962 3.529 8.16 9.259 8.16 15.735 0 10.632-8.619 19.251-19.251 19.251-3.203 0-6.224-0.782-8.881-2.166l0.107 0.051c-44.805-27.556-99.080-43.879-157.167-43.879-167.569 0-303.411 135.842-303.411 303.411s135.842 303.411 303.411 303.411c70.598 0 135.564-24.111 187.112-64.549l-0.659 0.498v-25.395l-35.021-35.43c-40.47 34.126-93.2 54.865-150.773 54.865-129.565 0-234.598-105.033-234.598-234.598s105.033-234.598 234.598-234.598c129.565 0 234.598 105.033 234.598 234.598 0 58.509-21.419 112.015-56.843 153.106l0.256-0.304 35.226 35.123h25.6c39.931-50.923 64.036-115.917 64.036-186.54 0-59.072-16.864-114.205-46.041-160.847l0.744 1.275c-1.98-2.97-3.159-6.621-3.159-10.547 0-10.596 8.589-19.185 19.185-19.185 6.669 0 12.544 3.403 15.982 8.567l0.044 0.070c0.016 0.138 0.025 0.298 0.025 0.461s-0.009 0.323-0.027 0.48l0.002-0.019c32.126 51.124 51.183 113.28 51.183 179.889 0 69.362-20.666 133.896-56.177 187.783l0.795-1.284h66.56c0.004 0 0.008 0 0.013 0 5.313 0 10.123 2.152 13.606 5.632v0l169.677 169.267c3.454 3.463 5.589 8.243 5.589 13.521 0 2.582-0.511 5.044-1.437 7.291l0.046-0.127zM657.92 398.029c0-0.038 0-0.084 0-0.129 0-108.188-87.703-195.891-195.891-195.891s-195.891 87.703-195.891 195.891c0 108.188 87.703 195.891 195.891 195.891 47.304 0 90.693-16.767 124.546-44.683l-0.334 0.268-43.52-43.725c-22.205 16.795-50.283 26.902-80.72 26.902-74.312 0-134.554-60.242-134.554-134.554s60.242-134.554 134.554-134.554c74.312 0 134.554 60.242 134.554 134.554 0 30.438-10.107 58.515-27.147 81.059l0.245-0.339 43.725 43.725c27.724-33.454 44.544-76.819 44.544-124.111 0-0.107 0-0.214 0-0.322v0.017zM448.512 384.41c3.479-3.457 8.274-5.594 13.568-5.594s10.089 2.137 13.569 5.595l66.457 66.457c9.984-14.908 15.934-33.25 15.934-52.981 0-53.048-43.004-96.051-96.051-96.051s-96.051 43.004-96.051 96.051c0 53.048 43.004 96.051 96.051 96.051 19.732 0 38.074-5.95 53.33-16.153l-0.348 0.219-66.458-66.458c-3.457-3.479-5.594-8.274-5.594-13.568s2.137-10.089 5.595-13.569l-0.001 0.001zM686.899 649.933v93.184l130.867 130.867v-93.184zM807.117 622.899h-92.979l130.867 130.867h92.979zM149.504 113.254c-3.418-3.457-5.53-8.212-5.53-13.461 0-10.576 8.573-19.149 19.149-19.149s19.149 8.573 19.149 19.149c0 0.016 0 0.033 0 0.049v-0.003c-0.131 5.295-2.252 10.070-5.64 13.628l0.008-0.008c-3.458 3.421-8.215 5.535-13.466 5.535-5.353 0-10.192-2.196-13.667-5.737l-0.003-0.003z" />
<glyph unicode="&#xe909;" glyph-name="comunicacion" d="M370.79 163.84l-334.541 184.32c-2.76 1.619-6.078 2.576-9.62 2.576-10.632 0-19.251-8.619-19.251-19.251 0-2.981 0.678-5.804 1.887-8.323l-0.050 0.116 45.773-106.803-43.418-58.061c-2.398-3.186-3.84-7.21-3.84-11.571s1.442-8.385 3.876-11.621l-0.036 0.050 43.418-57.856-45.773-106.906c-0.923-2.179-1.459-4.713-1.459-7.373s0.536-5.194 1.507-7.5l-0.048 0.127c2.921-7.143 9.817-12.083 17.867-12.083 0.019 0 0.037 0 0.056 0h-0.003c3.366 0.141 6.485 1.073 9.216 2.613l-0.102-0.053 334.541 184.32c6.018 3.334 10.024 9.647 10.024 16.896s-4.006 13.562-9.926 16.846l-0.099 0.050zM228.557 95.846l-161.792-88.986 24.269 56.525zM91.034 230.4l-24.166 56.627 161.69-89.19zM277.197 146.842l-192.205-45.158-33.792 45.158 33.792 45.158zM871.526 383.386h-312.934l17.306 17.306c0.43 0.471 0.693 1.101 0.693 1.792s-0.263 1.321-0.695 1.794l0.002-0.002-23.654 23.245c-0.466 0.483-1.12 0.783-1.843 0.783s-1.377-0.3-1.842-0.783l-0.001-0.001-44.442-44.032h-184.32c-1.126-0.033-2.452-0.051-3.782-0.051-77.14 0-139.674 62.534-139.674 139.674s62.534 139.674 139.674 139.674c1.33 0 2.655-0.019 3.976-0.055l-0.194 0.004h62.157l-17.306-17.203c-0.483-0.466-0.783-1.12-0.783-1.843s0.3-1.377 0.783-1.842l23.655-23.655c0.487-0.437 1.134-0.704 1.843-0.704s1.356 0.267 1.846 0.706l-0.003-0.002 44.339 44.851h40.96c10.355-140.615 126.983-250.777 269.342-250.777 149.133 0 270.029 120.896 270.029 270.029s-120.896 270.029-270.029 270.029c-0.118 0-0.237 0-0.355 0h0.019c-142.233-0.489-258.618-110.493-269.256-250.066l-0.056-0.916h-40.96l-44.442 44.442c-0.487 0.437-1.134 0.704-1.843 0.704s-1.356-0.267-1.846-0.706l0.003 0.002-23.552-23.654c-0.483-0.466-0.783-1.12-0.783-1.843s0.3-1.377 0.783-1.842l17.204-17.204h-61.645c-1.082 0.024-2.356 0.037-3.634 0.037-98.46 0-178.278-79.818-178.278-178.278 0-95.741 75.47-173.855 170.164-178.097l0.382-0.014h195.584l44.442-44.442c0.449-0.478 1.086-0.776 1.792-0.776s1.343 0.298 1.791 0.774l23.655 23.655c0.492 0.425 0.805 1.045 0.819 1.738v0.002c-0.010 0.728-0.323 1.382-0.818 1.842l-0.002 0.001-17.203 17.306h313.037c49.337-0.174 89.279-40.152 89.395-89.487v-0.011c-0.116-49.325-40.070-89.279-89.384-89.395h-150.949l-44.851 44.442c-0.449 0.478-1.086 0.776-1.792 0.776s-1.343-0.298-1.791-0.774l-0.001-0.001-23.245-23.654c-0.478-0.449-0.776-1.086-0.776-1.792s0.298-1.343 0.774-1.791l17.307-17.307h-254.669c-1.414 0-2.56-1.146-2.56-2.56v0-33.485c0-1.414 1.146-2.56 2.56-2.56v0h254.566l-17.306-17.306c-0.483-0.466-0.783-1.12-0.783-1.843s0.3-1.377 0.783-1.842l23.655-23.655c0.494-0.426 1.135-0.694 1.838-0.717h0.005c0.676 0.020 1.285 0.289 1.742 0.718l44.441 44.441h150.938c1.528-0.065 3.32-0.102 5.121-0.102 70.749 0 128.102 57.353 128.102 128.102s-57.353 128.102-128.102 128.102c-1.801 0-3.593-0.037-5.376-0.111l0.255 0.008zM746.189 450.56c-120.87 0.633-219.879 93.381-230.438 211.588l-0.064 0.892h45.056c10.107-94.398 89.329-167.27 185.572-167.27 103.041 0 186.573 83.531 186.573 186.573s-83.531 186.573-186.573 186.573c-96.243 0-175.465-72.872-185.5-166.45l-0.071-0.821h-45.056c12.007 117.66 110.572 208.687 230.397 208.687 127.868 0 231.526-103.658 231.526-231.526 0-4.826-0.148-9.617-0.439-14.37l0.032 0.652c-9.244-120.173-108.661-214.282-230.222-215.040h-0.076zM699.597 663.040l-17.203-17.306c-0.443-0.413-0.719-0.999-0.719-1.65 0-0.032 0.001-0.064 0.002-0.096v0.005c-0.001-0.032-0.002-0.069-0.002-0.106 0-0.678 0.275-1.292 0.719-1.737v0l24.166-23.859c0.471-0.43 1.101-0.693 1.792-0.693s1.321 0.263 1.794 0.695l-0.002-0.002 50.176 50.278c3.477 3.405 5.633 8.148 5.633 13.394 0 0.079 0 0.158-0.001 0.237v-0.012c0 0.029 0 0.063 0 0.098 0 5.286-2.153 10.069-5.631 13.52l-50.177 50.177c-0.449 0.478-1.086 0.776-1.792 0.776s-1.343-0.298-1.791-0.774l-23.655-23.655c-0.478-0.449-0.776-1.086-0.776-1.792s0.298-1.343 0.774-1.791l0.001-0.001 17.306-17.408h-100.659c9.878 72.993 71.789 128.666 146.704 128.666 81.72 0 147.968-66.248 147.968-147.968s-66.248-147.968-147.968-147.968c-74.914 0-136.826 55.672-146.619 127.901l-0.085 0.764zM746.189 579.174c55.479 1.805 99.767 47.212 99.767 102.963s-44.288 101.159-99.602 102.959l-0.165 0.004c-1.414 0-2.56-1.146-2.56-2.56v0-33.485c0-1.414 1.146-2.56 2.56-2.56v0c34.45-1.417 61.842-29.689 61.842-64.358s-27.392-62.941-61.714-64.354l-0.128-0.004c-1.414 0-2.56-1.146-2.56-2.56v0-33.485c0-1.414 1.146-2.56 2.56-2.56v0z" />
<glyph unicode="&#xe90a;" glyph-name="conceptualizacion" d="M512 813.158v0c9.162 0 16.589 7.427 16.589 16.589v0 99.533c0 9.162-7.427 16.589-16.589 16.589s-16.589-7.427-16.589-16.589v0-99.533c0.058-9.138 7.45-16.531 16.583-16.589h0.006zM265.318 858.931l49.766-86.323c2.919-5.044 8.289-8.383 14.438-8.383 9.182 0 16.626 7.444 16.626 16.626 0 3.032-0.812 5.875-2.23 8.323l0.043-0.080-49.869 86.426c-2.909 5.058-8.282 8.408-14.438 8.408-9.168 0-16.6-7.432-16.6-16.6 0-3.012 0.802-5.837 2.205-8.272l-0.043 0.080zM101.171 682.598l86.323-50.278c2.38-1.396 5.241-2.22 8.294-2.22 9.172 0 16.607 7.435 16.607 16.607 0 6.118-3.308 11.464-8.234 14.345l-0.079 0.042-86.323 50.278c-2.38 1.396-5.241 2.22-8.294 2.22-9.172 0-16.607-7.435-16.607-16.607 0-6.118 3.308-11.464 8.234-14.345l0.079-0.042zM163.84 464.691c0 9.162-7.427 16.589-16.589 16.589v0h-99.942c-9.162 0-16.589-7.427-16.589-16.589s7.427-16.589 16.589-16.589h99.635c0.061-0.001 0.133-0.001 0.205-0.001 9.183 0 16.634 7.415 16.691 16.585v0.005zM187.699 296.653v0l-86.426-49.869c-5.058-2.909-8.408-8.282-8.408-14.438 0-9.168 7.432-16.6 16.6-16.6 3.012 0 5.837 0.802 8.272 2.205l-0.080-0.043 86.221 49.766c5.058 2.909 8.408 8.282 8.408 14.438 0 9.168-7.432 16.6-16.6 16.6-3.012 0-5.837-0.802-8.272-2.205l0.080 0.043zM922.726 246.886v0l-86.323 49.766c-2.456 1.492-5.426 2.375-8.602 2.375-9.258 0-16.762-7.505-16.762-16.762 0-6.082 3.239-11.407 8.086-14.345l0.075-0.042 86.323-49.766c2.38-1.396 5.241-2.22 8.294-2.22 9.172 0 16.607 7.435 16.607 16.607 0 6.118-3.308 11.464-8.234 14.345l-0.079 0.042zM976.691 481.28h-99.533c-9.162 0-16.589-7.427-16.589-16.589s7.427-16.589 16.589-16.589h99.533c9.162 0 16.589 7.427 16.589 16.589s-7.427 16.589-16.589 16.589v0zM828.211 630.682v0c3.057 0.005 5.919 0.841 8.371 2.295l-0.076-0.042 86.323 49.766c5.004 2.924 8.312 8.269 8.312 14.387 0 9.172-7.435 16.607-16.607 16.607-3.054 0-5.915-0.824-8.373-2.262l0.079 0.042-86.323-49.766c-4.644-3.016-7.672-8.176-7.672-14.045 0-8.963 7.065-16.277 15.931-16.674l0.036-0.001zM686.080 766.566c2.377-1.394 5.235-2.217 8.285-2.217 6.093 0 11.419 3.285 14.303 8.181l0.042 0.078 50.074 86.323c1.432 2.404 2.278 5.302 2.278 8.397 0 9.176-7.438 16.614-16.614 16.614-6.081 0-11.398-3.267-14.294-8.141l-0.042-0.077-49.766-86.323c-1.498-2.445-2.386-5.404-2.386-8.571 0-6.037 3.225-11.32 8.045-14.223l0.075-0.042zM512 713.626v0c-137.412-0.175-248.76-111.522-248.934-248.918v-0.017c0-9.162 7.427-16.589 16.589-16.589s16.589 7.427 16.589 16.589v0c0.117 119.112 96.645 215.64 215.746 215.757h0.011c9.162 0 16.589 7.427 16.589 16.589s-7.427 16.589-16.589 16.589v0zM815.718 380.211c0 1.638 1.024 3.379 1.434 5.018s1.126 4.506 1.638 6.963 1.126 4.506 1.434 6.451c4.427 19.807 6.963 42.556 6.963 65.896 0 174.13-141.16 315.29-315.29 315.29-174.076 0-315.203-141.074-315.29-315.13v-0.008c0-7.373 0-14.746 0.819-22.016 0-3.994 0.717-8.090 1.229-12.39 0.922-8.499 2.048-16.896 3.686-25.19-0.028-0.307-0.043-0.664-0.043-1.024s0.016-0.717 0.047-1.070l-0.003 0.046c0.717-3.789 1.638-7.475 2.458-11.264 0.614-2.253 1.024-4.301 1.638-6.451s0-1.638 0.614-2.662 1.434-4.813 2.253-7.27 1.536-5.325 2.355-7.987v0c1.536-4.813 3.277-9.523 5.222-14.746l1.229-2.97c0.361-1.363 0.851-2.554 1.474-3.662l-0.040 0.078c1.26-3.521 2.504-6.394 3.901-9.176l-0.215 0.472c0.819-1.843 1.638-3.686 2.56-5.53s0.819-2.048 1.229-2.867c5.246-10.979 10.192-19.936 15.574-28.594l-0.726 1.253 1.536-2.458c1.024-1.638 2.048-3.277 3.072-4.71l2.048-2.97 2.97-4.506c0.771-1.218 1.513-2.253 2.307-3.244l-0.054 0.070c0.42-0.713 0.826-1.315 1.264-1.891l-0.035 0.048 1.024-1.434 2.048-2.458c2.662-3.789 5.427-7.373 8.294-10.957v0l1.638-1.843c3.277-3.994 6.656-7.987 10.24-11.878s6.144-6.451 9.216-9.523l2.97-3.072c0.439-0.389 0.84-0.79 1.216-1.214l0.013-0.015c4.506-4.301 9.114-8.499 13.722-12.595 8.195-7.152 17.176-14.116 26.549-20.55l0.997-0.647c1.672-1.942 3.763-3.475 6.138-4.466l0.108-0.040 6.451-48.333c-0.051-0.4-0.080-0.862-0.080-1.331s0.029-0.932 0.085-1.386l-0.005 0.054c0-0.016 0-0.034 0-0.053 0-2.647 0.683-5.134 1.882-7.295l-0.039 0.077 12.186-90.829c0.248-1.681 0.713-3.198 1.373-4.606l-0.042 0.1c3.897-8.746 8.104-16.209 12.914-23.225l-0.319 0.493c30.186-44.542 80.558-73.428 137.677-73.428s107.491 28.886 137.305 72.847l0.372 0.581c4.582 6.543 8.824 14.008 12.349 21.864l0.348 0.868c0.618 1.307 1.083 2.824 1.32 4.416l0.011 0.090 20.48 149.094c1.288 0.412 2.408 0.969 3.423 1.667l-0.044-0.028c61.503 41.439 107.025 102.514 127.854 174.104l0.555 2.229c0.304 0.2 0.504 0.537 0.512 0.92v0.001zM424.346 16.691h175.309c-23.212-20.634-53.961-33.238-87.654-33.238s-64.442 12.605-87.789 33.356l0.135-0.118zM631.296 58.163q-1.946-4.301-4.301-8.294h-229.99q-2.355 3.994-4.301 8.294l-10.24 74.65h258.867zM645.837 165.786h-267.264l-4.813 33.382h276.48zM478.822 232.448v155.341l23.45-16.896c2.679-1.962 6.041-3.139 9.677-3.139s6.997 1.177 9.723 3.171l-0.047-0.032 23.552 16.998v-155.546zM793.6 446.464v0c0-5.018-0.717-10.24-1.331-14.95v0c-0.047-0.415-0.074-0.895-0.074-1.382s0.027-0.968 0.080-1.441l-0.005 0.058c0.023-0.23 0.036-0.498 0.036-0.768s-0.013-0.538-0.039-0.801l0.003 0.033c0.024-0.2 0.038-0.431 0.038-0.666s-0.014-0.466-0.041-0.693l0.003 0.028c0.021-0.215 0.032-0.464 0.032-0.717s-0.012-0.502-0.035-0.748l0.002 0.032c0-2.56-0.717-5.12-1.229-7.68s0-2.253-0.614-3.482-0.717-3.686-1.331-6.554v0l-1.229-6.042c0-0.614 0-1.229 0-1.946-0.623-3.23-1.332-5.947-2.19-8.597l0.142 0.507c-0.357-0.957-0.709-2.156-0.986-3.384l-0.038-0.2c-0.819-2.97-1.638-5.939-2.765-9.114s-2.765-8.499-4.403-12.493l-0.614-1.741c-0.819-2.15-1.741-4.301-2.662-6.349-0.386-0.648-0.702-1.398-0.908-2.192l-0.013-0.061v-0.717c-1.434-3.686-3.072-7.27-5.222-11.571s-2.56-5.222-3.891-7.782l-1.946-3.994c-21.899-39.784-51.709-72.672-87.536-97.485l-0.937-0.614c-0.4 0.048-0.862 0.075-1.331 0.075s-0.932-0.027-1.386-0.081l0.055 0.005h-92.774v138.957l1.331-0.922c2.693-1.919 6.051-3.068 9.677-3.068s6.984 1.149 9.728 3.103l-0.052-0.035 38.707 27.853c4.918 2.939 8.161 8.235 8.161 14.288 0 9.162-7.427 16.589-16.589 16.589-3.821 0-7.34-1.292-10.144-3.462l0.038 0.028-0.717-0.512-29.184-20.48-29.082 20.48c-2.679 1.962-6.041 3.139-9.677 3.139s-6.997-1.177-9.723-3.171l0.047 0.032-28.979-20.48-29.082 20.48c-2.679 1.962-6.041 3.139-9.677 3.139s-6.997-1.177-9.723-3.171l0.047 0.032-29.082-20.48-28.877 20.48c-2.865 2.383-6.583 3.83-10.638 3.83-9.218 0-16.691-7.473-16.691-16.691 0-5.952 3.115-11.176 7.805-14.131l0.069-0.041 38.707-27.853c2.679-1.962 6.041-3.139 9.677-3.139s6.997 1.177 9.723 3.171l-0.047-0.032 1.434 1.024v-139.571h-92.877c-18.438 12.712-34.509 26.703-48.867 42.295l-0.182 0.201c-3.174 3.482-6.246 7.168-9.318 10.854-0.614 0.717-1.229 1.331-1.741 2.048-2.652 3.045-5.242 6.383-7.64 9.864l-0.245 0.376c-1.024 1.331-2.048 2.56-2.97 3.891v0.512l-0.512 0.819-1.638 1.434c-3.891 5.632-7.475 11.469-10.957 17.306s-6.349 11.264-9.011 16.896c-1.024 2.253-2.253 4.506-3.277 6.554l-0.41 2.56-0.819 1.741c-3.181 7.059-6.656 16.221-9.668 25.59l-0.572 2.058-0.922 2.765c-1.434 4.813-2.867 10.24-4.096 14.643 0 0 0 0 0 0.819s0 1.331 0 1.946-0.512 2.253-0.819 3.482c-0.819 3.379-1.638 6.861-2.253 10.24 0.028 0.169 0.043 0.364 0.043 0.563s-0.016 0.394-0.046 0.584l0.003-0.021c-0.819 4.506-1.638 9.216-2.253 13.926 0.048 0.461 0.075 0.995 0.075 1.536s-0.027 1.075-0.081 1.602l0.005-0.066v1.536c-0.614 4.915-1.024 9.728-1.331 15.155-0.463 4.817-0.727 10.415-0.727 16.075 0 0.685 0.004 1.369 0.012 2.052l-0.001-0.104c0 155.806 126.306 282.112 282.112 282.112s282.112-126.306 282.112-282.112v0c-2.662-5.837-2.765-11.469-3.174-17.613z" />
<glyph unicode="&#xe90b;" glyph-name="contenido" d="M615.629 513.229c-93.314 0-168.96-75.646-168.96-168.96s75.646-168.96 168.96-168.96c93.314 0 168.96 75.646 168.96 168.96v0c0 93.314-75.646 168.96-168.96 168.96v0zM615.629 213.709c-0.030 0-0.066 0-0.102 0-72.163 0-130.662 58.5-130.662 130.662s58.5 130.662 130.662 130.662c72.163 0 130.662-58.5 130.662-130.662 0-0.036 0-0.072 0-0.108v0.006c0-72.106-58.454-130.56-130.56-130.56v0zM984.474 67.584v0l-152.371 152.474c20.973 35.726 33.36 78.686 33.36 124.538 0 66.954-26.411 127.74-69.384 172.507l0.081-0.085v215.040c0 0.004 0 0.008 0 0.013 0 5.313-2.152 10.123-5.632 13.606v0l-188.211 188.211c-3.483 3.48-8.293 5.632-13.606 5.632-0.005 0-0.009 0-0.014 0h-510.668c-31.783 0-57.549-25.765-57.549-57.549v0-867.942c0-31.783 25.765-57.549 57.549-57.549h660.582c31.783 0 57.549 25.765 57.549 57.549v0 57.754l96.256-96.256c11.793-11.793 28.085-19.087 46.080-19.087 35.991 0 65.167 29.176 65.167 65.167 0 17.995-7.294 34.287-19.087 46.080v0zM730.419 751.411h-103.322c-10.576 0-19.149 8.573-19.149 19.149v0 103.424zM757.555 14.131c0-10.576-8.573-19.149-19.149-19.149v0h-660.378c-10.576 0-19.149 8.573-19.149 19.149v0 867.84c0 10.576 8.573 19.149 19.149 19.149v0h491.52v-130.56c0-31.783 25.765-57.549 57.549-57.549v0h130.662v-163.84c-39.531 27.499-88.552 43.934-141.411 43.934-137.822 0-249.549-111.727-249.549-249.549 0-27.412 4.42-53.791 12.585-78.465l-0.505 1.763h-235.52c-10.011-0.754-17.848-9.062-17.848-19.2s7.837-18.446 17.784-19.196l0.064-0.004h245.76c1.873 0.041 3.667 0.3 5.382 0.753l-0.16-0.036c42.464-80.525 125.618-134.479 221.373-134.479 41.784 0 81.169 10.274 115.766 28.432l-1.369-0.655 10.24 5.427 17.408-17.818zM615.629 133.12c-116.671 0-211.251 94.58-211.251 211.251s94.58 211.251 211.251 211.251c116.671 0 211.251-94.58 211.251-211.251 0-0.036 0-0.072 0-0.108v0.006c0-116.614-94.535-211.149-211.149-211.149-0.036 0-0.072 0-0.108 0h0.006zM957.235 2.662v0c-4.858-4.784-11.53-7.739-18.893-7.739s-14.035 2.954-18.896 7.742l-147.351 147.351c13.975 11.38 26.33 23.768 37.313 37.314l0.37 0.471 147.354-147.354c4.839-4.852 7.832-11.549 7.832-18.944 0-7.344-2.951-13.999-7.732-18.844l0.003 0.003zM615.629 430.797c-10.011-0.754-17.848-9.062-17.848-19.2s7.837-18.446 17.784-19.196l0.064-0.004c0 0 0 0 0 0 26.488 0 47.967-21.443 48.025-47.918v-0.006c0.273-10.42 8.785-18.763 19.245-18.763 9.955 0 18.145 7.556 19.148 17.247l0.007 0.083v1.434c-0.116 47.664-38.753 86.265-86.42 86.323h-0.006zM316.416 400.384h-173.056c-0.57 0.060-1.231 0.094-1.9 0.094-10.632 0-19.251-8.619-19.251-19.251s8.619-19.251 19.251-19.251c0.2 0 0.399 0.003 0.598 0.009l-0.029-0.001h174.080c10.011 0.754 17.848 9.062 17.848 19.2s-7.837 18.446-17.784 19.196l-0.064 0.004zM142.234 495.104h185.446c10.385 0.317 18.682 8.811 18.682 19.243 0 9.963-7.568 18.158-17.269 19.15l-0.082 0.007h-185.651c-10.385-0.317-18.682-8.811-18.682-19.243 0-9.963 7.568-18.158 17.269-19.15l0.082-0.007zM385.229 134.144c-10.407-0.289-18.733-8.794-18.733-19.244 0-10.632 8.619-19.251 19.251-19.251s19.251 8.619 19.251 19.251c0 5.316-2.155 10.128-5.638 13.612v0c-3.468 3.484-8.268 5.64-13.572 5.64-0.197 0-0.393-0.003-0.588-0.009l0.029 0.001zM307.712 134.144h-164.352c-0.57 0.060-1.231 0.094-1.9 0.094-10.632 0-19.251-8.619-19.251-19.251s8.619-19.251 19.251-19.251c0.2 0 0.399 0.003 0.598 0.009l-0.029-0.001h163.84c0.158-0.005 0.343-0.007 0.529-0.007 10.403 0 18.889 8.208 19.335 18.501l0.001 0.040c0.012 0.252 0.019 0.548 0.019 0.846 0 10.165-7.964 18.471-17.993 19.018l-0.049 0.002zM143.36 628.326c0.027 0 0.058 0 0.090 0 10.632 0 19.251 8.619 19.251 19.251s-8.619 19.251-19.251 19.251c-10.632 0-19.251-8.619-19.251-19.251 0-5.319 2.157-10.135 5.645-13.619v0c3.463-3.459 8.236-5.607 13.512-5.632h0.005zM512 666.624h-286.72c-10.385-0.317-18.682-8.811-18.682-19.243 0-9.963 7.568-18.158 17.269-19.15l0.082-0.007h288.051c10.011 0.754 17.848 9.062 17.848 19.2s-7.837 18.446-17.784 19.196l-0.064 0.004zM143.36 761.344h368.64c10.011 0.754 17.848 9.062 17.848 19.2s-7.837 18.446-17.784 19.196l-0.064 0.004h-368.64c-10.011-0.754-17.848-9.062-17.848-19.2s7.837-18.446 17.784-19.196l0.064-0.004z" />
<glyph unicode="&#xe90c;" glyph-name="facebook" d="M589.041 606.897v105.931c0 7.223 4.013 11.235 8.025 19.26 4.013 7.223 12.038 11.235 20.063 11.235 12.038 3.21 24.075 4.815 36.113 4.013h85.066v155.687h-133.216c-60.188 5.618-120.376-13.643-166.119-52.966-36.915-41.73-56.176-96.301-52.966-151.674v-94.696h-101.116v-155.687h101.116v-454.219h203.034v454.219h134.019l16.050 155.687h-150.069v3.21z" />
<glyph unicode="&#xe90d;" glyph-name="instagram" d="M840.795 794.683h-0.803c-9.63 0-16.853-8.025-16.853-17.655 0 0 0 0 0 0 0-9.63 8.025-17.655 17.655-17.655s17.655 8.025 17.655 17.655c0 9.63-8.025 17.655-17.655 17.655zM511.767 689.555c-133.216 0-241.555-107.536-241.555-241.555 0-133.216 108.339-241.555 241.555-241.555 0 0 0 0 0 0 133.216 0 241.555 108.339 241.555 241.555s-107.536 241.555-241.555 241.555v0zM834.375 903.022h-644.414c-73.028-0.803-131.611-59.386-132.414-132.414v-644.414c0.803-73.028 60.188-131.611 133.216-132.414h644.414c73.028 0.803 131.611 59.386 132.414 132.414v644.414c-1.605 73.028-60.188 131.611-133.216 132.414zM840.795 724.063c-28.89 0-52.966 24.075-52.966 52.966 0 29.693 24.075 52.966 52.966 52.966 29.693 0 52.966-24.075 52.966-52.966 0 0 0 0 0 0 0-29.693-24.075-52.966-52.966-52.966v0 0zM511.767 137.429h-2.408c-170.934 0.803-308.966 139.636-308.163 310.571 0 0 0 0 0 0 0 171.737 138.834 310.571 310.571 310.571 0 0 0 0 0 0 171.737 0 310.571-138.834 310.571-310.571v0c0-171.737-138.834-310.571-310.571-310.571v0z" />
<glyph unicode="&#xe90e;" glyph-name="linkedin" d="M967.022-7.022v0 325.818c0 158.897-33.705 281.68-222.295 281.68-71.423 2.408-138.031-34.508-174.144-96.301h-4.013v81.053h-177.354v-592.251h185.379v292.915c0 77.843 14.445 151.674 111.549 151.674 92.288 0 96.301-89.078 96.301-155.687v-288.903h184.577zM71.423 585.229h185.379v-592.251h-185.379v592.251zM164.514 903.022c-59.386 0-107.536-48.15-107.536-107.536s48.15-107.536 107.536-107.536 107.536 48.15 107.536 107.536v0c-0.803 59.386-48.15 107.536-107.536 107.536z" />
<glyph unicode="&#xe90f;" glyph-name="twitter" d="M967.022 732.088c-33.705-16.050-69.818-25.68-106.734-30.495 38.52 24.075 68.213 60.188 83.461 102.721-36.113-22.47-76.238-37.718-117.969-45.743-35.31 38.52-85.066 60.991-137.229 60.188-102.721 0-186.182-83.461-186.182-186.182-0.803-14.445 0.803-28.088 4.013-41.73-150.069 8.025-289.705 78.646-385.204 194.207-16.853-28.89-25.68-61.793-26.483-95.498 0.803-62.596 32.1-121.179 83.461-156.489-29.693-0.803-58.583 7.223-83.461 22.47v-4.013c-0.803-88.276 61.793-165.317 148.464-182.972-16.050-4.815-32.903-7.223-49.755-8.025-11.235-0.803-23.273 0.803-34.508 4.013 24.075-76.238 94.696-129.204 174.947-129.204-66.608-51.361-148.464-79.448-231.925-79.448-15.248-0.803-30.495 0.803-45.743 4.013 247.172-158.094 576.201-85.868 735.097 161.304 54.571 85.868 84.263 185.379 83.461 287.298v22.47c35.31 31.298 65.806 64.201 92.288 101.116z" />
<glyph unicode="&#xe910;" glyph-name="seo" d="M618.291 567.91c-95.633 0-173.158-77.526-173.158-173.158s77.526-173.158 173.158-173.158c95.633 0 173.158 77.526 173.158 173.158v0c0 95.633-77.526 173.158-173.158 173.158v0zM618.291 260.71c-73.916 0-133.837 59.921-133.837 133.837s59.921 133.837 133.837 133.837c73.844 0 133.72-59.804 133.837-133.621v-0.011c0-73.916-59.921-133.837-133.837-133.837v0zM618.291 483.43c-10.858 0-19.661-8.802-19.661-19.661s8.802-19.661 19.661-19.661v0c27.158-0.058 49.152-22.088 49.152-49.254 0 0 0 0 0 0v0c-0.007-0.198-0.011-0.432-0.011-0.666 0-10.865 8.807-19.672 19.672-19.672 10.631 0 19.292 8.432 19.66 18.973l0.001 0.034v1.331c0 0.030 0 0.066 0 0.102 0 48.863-39.611 88.474-88.474 88.474 0 0 0 0 0 0v0zM129.536 750.182c-3.1 7.030-10.008 11.849-18.042 11.849-10.858 0-19.661-8.802-19.661-19.661 0-3.199 0.764-6.219 2.119-8.889l-0.052 0.112c0.222-0.597 0.464-1.104 0.743-1.585l-0.026 0.049 52.941-102.4c3.34-6.459 9.97-10.798 17.613-10.798s14.273 4.339 17.561 10.688l0.052 0.11 32.256 67.379 34.816-67.277c3.456-6.152 9.94-10.24 17.378-10.24 0.047 0 0.093 0 0.139 0h-0.007c7.627 0.179 14.174 4.63 17.356 11.046l0.052 0.116 49.152 102.4c1.040 2.318 1.645 5.025 1.645 7.873 0 10.858-8.802 19.661-19.661 19.661-7.522 0-14.057-4.224-17.363-10.429l-0.052-0.106-32.256-67.174-34.816 67.277c-3.357 6.405-9.958 10.699-17.562 10.699-3.31 0-6.43-0.814-9.17-2.252l0.109 0.052c-3.781-2.054-6.773-5.145-8.65-8.893l-0.054-0.118-32.051-66.765zM256 859.136c0.029 0 0.063 0 0.097 0 10.915 0 19.763 8.848 19.763 19.763s-8.848 19.763-19.763 19.763c-10.915 0-19.763-8.848-19.763-19.763 0-5.433 2.193-10.355 5.741-13.927l-0.001 0.001c3.597-3.522 8.494-5.729 13.906-5.836h0.021zM1015.706 560.128v259.686c-0.058 43.431-35.221 78.629-78.632 78.746h-598.334c-10.286-0.764-18.342-9.297-18.342-19.712s8.056-18.948 18.276-19.708l0.066-0.004h598.323c21.717 0 39.322-17.605 39.322-39.322v0-259.174c0-21.717-17.605-39.322-39.322-39.322v0h-96.154c-30.897 53.437-78.973 94.018-136.548 114.639l-1.794 0.561 29.184 60.723 34.816-67.277c3.404-6.148 9.853-10.242 17.258-10.242 0.089 0 0.178 0.001 0.266 0.002h-0.013c7.642 0.129 14.21 4.599 17.357 11.045l0.051 0.116 49.152 102.4c1.217 2.486 1.928 5.409 1.928 8.499 0 10.877-8.818 19.695-19.695 19.695-7.787 0-14.519-4.52-17.715-11.079l-0.051-0.117-31.744-67.482-34.816 67.379c-3.382 6.32-9.939 10.547-17.483 10.547-7.746 0-14.451-4.456-17.691-10.944l-0.052-0.114-32.051-66.765-34.816 67.277c-3.348 6.352-9.907 10.609-17.459 10.609-10.864 0-19.671-8.807-19.671-19.671 0-3.311 0.818-6.432 2.263-9.17l-0.052 0.107 43.827-84.070c-11.026 1.678-23.747 2.636-36.692 2.636-24.893 0-48.958-3.543-71.719-10.152l1.813 0.451 44.032 91.648c1.040 2.318 1.645 5.025 1.645 7.873 0 10.858-8.802 19.661-19.661 19.661-7.522 0-14.057-4.224-17.363-10.429l-0.052-0.106-32.051-66.765-34.918 67.379c-3.352 6.331-9.897 10.57-17.433 10.57-7.737 0-14.43-4.469-17.639-10.967l-0.051-0.115-32.154-66.765-34.816 67.277c-3.348 6.352-9.907 10.609-17.459 10.609-10.864 0-19.671-8.807-19.671-19.671 0-3.311 0.818-6.432 2.263-9.17l-0.052 0.107 52.941-102.4c3.34-6.459 9.97-10.798 17.613-10.798s14.273 4.339 17.561 10.688l0.052 0.11 32.051 66.765 34.918-67.277c0.589-1.21 1.272-2.253 2.067-3.198l-0.019 0.023c-48.768-22.953-88.096-59.183-114.234-104.043l-0.659-1.224h-308.736c-21.706 0.116-39.264 17.71-39.322 39.419v259.691c0 21.717 17.605 39.322 39.322 39.322v0h80.691c10.286 0.764 18.342 9.297 18.342 19.712s-8.056 18.948-18.276 19.708l-0.066 0.004h-80.691c-43.423-0.116-78.585-35.315-78.643-78.74v-259.18c0.058-43.431 35.221-78.629 78.632-78.746h290.622c-9.54-25.744-15.059-55.481-15.059-86.508 0-141.385 114.615-256 256-256 46.757 0 90.587 12.535 128.311 34.429l-1.226-0.657 156.16-156.16c12.068-12.068 28.74-19.532 47.155-19.532 36.831 0 66.688 29.857 66.688 66.688 0 18.415-7.464 35.087-19.532 47.155v0l-61.44 61.44c-3.564 3.564-8.488 5.769-13.926 5.769-10.877 0-19.695-8.818-19.695-19.695 0-5.439 2.204-10.362 5.769-13.926l61.44-61.44c4.953-4.953 8.017-11.796 8.017-19.354 0-15.116-12.254-27.37-27.37-27.37-7.558 0-14.401 3.064-19.354 8.017v0l-151.245 151.040c58.331 47.31 95.307 118.978 95.307 199.283 0 30.991-5.507 60.696-15.596 88.189l0.57-1.777h78.438c43.454 0 78.687 35.197 78.746 78.638v0.006zM618.291 178.381c-0.030 0-0.066 0-0.102 0-119.555 0-216.474 96.919-216.474 216.474s96.919 216.474 216.474 216.474c119.555 0 216.474-96.919 216.474-216.474 0-0.036 0-0.072 0-0.108v0.006c0-119.499-96.873-216.371-216.371-216.371v0zM860.16 219.238c-3.574-3.561-5.786-8.487-5.786-13.929 0-10.858 8.802-19.661 19.661-19.661s19.661 8.802 19.661 19.661c0 5.443-2.212 10.369-5.785 13.929l-0.001 0.001c-3.597 3.522-8.494 5.729-13.906 5.836h-0.021c-5.395-0.136-10.251-2.338-13.828-5.84l0.004 0.003z" />
<glyph unicode="&#xe911;" glyph-name="storytelling" d="M512 697.549c-0.030 0-0.066 0-0.102 0-10.632 0-19.251-8.619-19.251-19.251s8.619-19.251 19.251-19.251c10.632 0 19.251 8.619 19.251 19.251v0c0 0 0 0 0 0 0 10.596-8.561 19.193-19.143 19.251h-0.006zM193.331 351.949c10.632 0 19.251 8.619 19.251 19.251s-8.619 19.251-19.251 19.251c-10.632 0-19.251-8.619-19.251-19.251v0c0-10.632 8.619-19.251 19.251-19.251v0zM928.666 417.997c45.771 47.621 74.174 112.23 74.853 183.47l0.001 0.133c0 166.81-166.81 287.949-337.92 287.949-172.851 0-314.675-119.194-325.734-269.312-164.557-8.397-319.386-126.976-319.386-287.437 0.658-71.376 29.066-135.992 74.938-183.691l-0.084 0.087c2.116-8.306 3.33-17.84 3.33-27.659 0-32.139-13.010-61.239-34.052-82.321l0.002 0.002c-3.457-3.479-5.594-8.274-5.594-13.568s2.137-10.089 5.595-13.569l-0.001 0.001c3.498-3.465 8.306-5.612 13.615-5.632h0.004c0.010 0 0.022 0 0.034 0 57.105 0 108.941 22.56 147.081 59.253l-0.069-0.066c39.583-12.99 85.14-20.482 132.446-20.482 0.417 0 0.834 0.001 1.251 0.002h-0.065c172.851 0 314.675 119.194 325.632 269.21 41.675 1.715 81.026 9.079 118.142 21.352l-3.045-0.872c37.982-36.64 89.706-59.257 146.713-59.392h0.027c0.004 0 0.008 0 0.013 0 10.632 0 19.251 8.619 19.251 19.251 0 5.319-2.157 10.135-5.645 13.619v0c-21.3 21.123-34.486 50.398-34.486 82.753 0 9.55 1.149 18.832 3.316 27.715l-0.165-0.798zM358.4 83.149c-0.263-0.001-0.573-0.001-0.884-0.001-46.875 0-91.803 8.332-133.385 23.596l2.686-0.863c-2.106 0.867-4.551 1.371-7.114 1.371-5.617 0-10.668-2.418-14.171-6.27l-0.014-0.016c-22.502-24.546-51.805-42.519-84.921-50.942l-1.197-0.258c11.091 20.85 17.604 45.591 17.604 71.854 0 15.145-2.166 29.785-6.205 43.626l0.275-1.099c-0.904 3.178-2.537 5.904-4.711 8.090l0.001-0.001c-41.156 41.15-66.817 97.797-67.481 160.437l-0.001 0.126c0 135.68 137.114 249.549 299.52 249.549 153.6 0 288.051-106.598 288.051-249.549-0.102-137.728-129.229-249.651-288.051-249.651zM818.381 369.869c-3.548 3.847-8.614 6.248-14.241 6.248-2.54 0-4.966-0.489-7.189-1.379l0.13 0.046c-33.29-12.502-71.769-20.504-111.88-22.195l-0.76-0.025c-7.202 77.971-45.982 145.679-103.261 191.050l-0.573 0.438h250.061c10.011 0.754 17.848 9.062 17.848 19.2s-7.837 18.446-17.784 19.196l-0.064 0.004h-309.453c-41.414 21.275-89.983 34.886-141.435 37.645l-0.901 0.039c10.24 128.922 135.168 230.912 286.72 230.912 162.304 0 299.52-114.278 299.52-249.446-0.758-62.736-26.44-119.33-67.583-160.46l-0.001-0.001c-2.121-2.252-3.743-4.998-4.672-8.047l-0.038-0.145c-3.748-12.72-5.904-27.333-5.904-42.45 0-26.251 6.503-50.984 17.986-72.674l-0.408 0.845c-34.275 8.683-63.563 26.575-86.011 50.878l-0.107 0.118zM512 390.349h-241.971c-10.011-0.754-17.848-9.062-17.848-19.2s7.837-18.446 17.784-19.196l0.064-0.004h241.971c10.011 0.754 17.848 9.062 17.848 19.2s-7.837 18.446-17.784 19.196l-0.064 0.004zM512 275.149h-318.669c-10.011-0.754-17.848-9.062-17.848-19.2s7.837-18.446 17.784-19.196l0.064-0.004h318.669c10.011 0.754 17.848 9.062 17.848 19.2s-7.837 18.446-17.784 19.196l-0.064 0.004zM830.669 697.549h-241.869c-10.011-0.754-17.848-9.062-17.848-19.2s7.837-18.446 17.784-19.196l0.064-0.004h241.869c10.011 0.754 17.848 9.062 17.848 19.2s-7.837 18.446-17.784 19.196l-0.064 0.004z" />
<glyph unicode="&#xe91e;" glyph-name="compartir" d="M752.291 39.035c-37.642 6.192-71.997 25.165-97.284 53.725-29.225 33.885-41.175 79.359-32.389 123.229 0.578 7.731-2.68 15.245-8.713 20.107-79.099 41.341-158.732 81.671-235.295 120.7-20.627-16.379-42.432-31.219-65.241-44.405-63.413-27.939-137.729-7.68-178.189 48.588-38.097 54.043-36.399 126.639 4.183 178.839 49.426 63.753 141.176 75.371 204.929 25.952 6.452-5 12.477-10.541 18.005-16.545 5-7.131 14.84-8.858 21.971-3.851 0.007 0.007 0.014 0.007 0.022 0.014 75.833 39.109 151.977 77.56 227.543 117.124 6.459 4.357 10.397 11.589 10.556 19.377-14.356 80.414 39.203 157.237 119.616 171.593 0.499 0.087 0.997 0.173 1.503 0.26 3.1 0.853 6.112 2.009 8.981 3.454h32.086c3.547-1.546 7.203-2.832 10.939-3.836 80.175-14.855 133.12-91.894 118.265-172.070-2.789-15.042-7.897-29.565-15.144-43.039-37.787-71.874-126.675-99.509-198.549-61.723-15.18 7.984-28.849 18.561-40.387 31.255-6.604 6.907-10.902 11.509-21.53 5.989-75.703-39.427-151.652-78.34-227.846-116.741-10.902-5.491-11.322-11.509-10.245-22.108 2.074-17.058 2.29-34.282 0.65-51.384-2.803-9.024 2.131-18.626 11.090-21.603 39.455-19.493 78.405-40.026 117.55-60.097 40.756-20.851 81.526-41.652 122.311-62.402 6.329 6.524 11.249 12.015 16.581 17 58.103 53.905 148.35 52.468 204.705-3.258 53.667-54.729 57.518-141.082 8.937-200.37-25.584-28.235-59.786-47.222-97.284-53.999l-32.324 0.224z" />
<glyph unicode="&#xea3c;" glyph-name="flecha-derecha" d="M621.254 82.746l320 320c24.994 24.992 24.994 65.516 0 90.51l-320 320c-24.994 24.992-65.516 24.992-90.51 0-24.994-24.994-24.994-65.516 0-90.51l210.746-210.746h-613.49c-35.346 0-64-28.654-64-64s28.654-64 64-64h613.49l-210.746-210.746c-12.496-12.496-18.744-28.876-18.744-45.254s6.248-32.758 18.744-45.254c24.994-24.994 65.516-24.994 90.51 0z" />
</font></defs></svg>